\relax 
\bibstyle{abbrv}
\bibdata{nime-references}
\@writefile{lof}{\contentsline {figure}{\numberline {1}{\ignorespaces Column width concept image using figure}}{\thepage }}
\newlabel{fig:ConceptImage}{{1}{\thepage }}
\@writefile{toc}{\contentsline {section}{\numberline {1}Introduction}{\thepage }}
\@writefile{toc}{\contentsline {section}{\numberline {2}Design}{\thepage }}
\@writefile{toc}{\contentsline {section}{\numberline {3}Design Configuration}{\thepage }}
\@writefile{toc}{\contentsline {section}{\numberline {4}Software Specification}{\thepage }}
\@writefile{toc}{\contentsline {subsection}{\numberline {4.1}Tangible Detection}{\thepage }}
\@writefile{toc}{\contentsline {subsection}{\numberline {4.2}Feedback and Graphical User Interface}{\thepage }}
\@writefile{toc}{\contentsline {subsection}{\numberline {4.3}Wireless Communication}{\thepage }}
\@writefile{toc}{\contentsline {subsection}{\numberline {4.4}Compatibility}{\thepage }}
\@writefile{toc}{\contentsline {section}{\numberline {5}Prior Work}{\thepage }}
\@writefile{toc}{\contentsline {section}{\numberline {6}Future Development}{\thepage }}
\@writefile{toc}{\contentsline {section}{\numberline {7}Final Words}{\thepage }}
\@writefile{toc}{\contentsline {section}{\numberline {8}Acknowledgement}{\thepage }}
\@writefile{toc}{\contentsline {section}{\numberline {9}References}{\thepage }}
\@writefile{lof}{\contentsline {figure}{\numberline {2}{\ignorespaces Page wide concept image using figure*}}{\thepage }}
\newlabel{fig:ConceptImage2}{{2}{\thepage }}
