\relax 
\citation{Lindeman:Bimanual-PassiveHaptic-3DWidget}
\citation{dEscrivan:MusicTechnology}
\citation{jorda:reacTable}
\citation{rogers:InteractionDesign}
\citation{jorda:reacTable}
\citation{Lindeman:Bimanual-PassiveHaptic-3DWidget}
\@writefile{toc}{\contentsline {section}{\numberline {1}Introduction}{\thepage }}
\newlabel{sec:introduction}{{1}{\thepage }}
\@writefile{lof}{\contentsline {figure}{\numberline {1}{\ignorespaces Turnector control system concept}}{\thepage }}
\newlabel{fig:ConceptImage}{{1}{\thepage }}
\@writefile{toc}{\contentsline {section}{\numberline {2}Related Work}{\thepage }}
\newlabel{sec:relatedWork}{{2}{\thepage }}
\@writefile{toc}{\contentsline {subsection}{\numberline {2.1}Interaction design}{\thepage }}
\@writefile{toc}{\contentsline {subsection}{\numberline {2.2}Tangible User Interfaces (TUIs)}{\thepage }}
\citation{jorda:reacTable}
\citation{jorda:reacTable}
\citation{wang:Squeezy}
\citation{hexler:TouchOSC}
\citation{hexler:TouchOSC}
\citation{ion:Scratch2Go}
\citation{hexler:TouchOSC}
\citation{hexler:TouchOSC}
\citation{redlinger:mrmr}
\citation{redlinger:mrmr}
\citation{hexler:TouchOSC}
\citation{ion:Scratch2Go}
\citation{hexler:TouchOSC}
\citation{ion:Scratch2Go}
\citation{gelineck:SmartTangibleMixing}
\citation{gelineck:SmartTangibleMixing}
\citation{segundo:tabletMarket}
\citation{barret:pro-CapTouchTech}
\@writefile{toc}{\contentsline {subsection}{\numberline {2.3}Comparable systems}{\thepage }}
\@writefile{toc}{\contentsline {subsubsection}{\numberline {2.3.1}reacTable}{\thepage }}
\@writefile{toc}{\contentsline {subsubsection}{\numberline {2.3.2}Squeezy}{\thepage }}
\@writefile{toc}{\contentsline {subsubsection}{\numberline {2.3.3}Hexler: TouchOSC}{\thepage }}
\@writefile{toc}{\contentsline {subsubsection}{\numberline {2.3.4}Ion: Scratch2GO}{\thepage }}
\@writefile{toc}{\contentsline {subsubsection}{\numberline {2.3.5}Mrmr}{\thepage }}
\@writefile{lof}{\contentsline {figure}{\numberline {2}{\ignorespaces TouchOSC \cite  {hexler:TouchOSC} customisable control system and Scratch2Go \cite  {ion:Scratch2Go} capacitive touch widgets}}{\thepage }}
\newlabel{fig:TouchOSC_and_Scratch2Go}{{2}{\thepage }}
\@writefile{toc}{\contentsline {section}{\numberline {3}System Design}{\thepage }}
\newlabel{sec:systemDesign}{{3}{\thepage }}
\@writefile{lof}{\contentsline {figure}{\numberline {3}{\ignorespaces Turnector prototype widget in use}}{\thepage }}
\newlabel{fig:Demo}{{3}{\thepage }}
\@writefile{toc}{\contentsline {subsection}{\numberline {3.1}Design Specification}{\thepage }}
\@writefile{toc}{\contentsline {section}{\numberline {4}Tangible Design}{\thepage }}
\newlabel{sec:tangibleDesign}{{4}{\thepage }}
\citation{wang:Squeezy}
\citation{voelker:PUCs}
\@writefile{lof}{\contentsline {figure}{\numberline {4}{\ignorespaces Prototype widgets in a calibration jig.}}{\thepage }}
\newlabel{fig:Prototype_Jig}{{4}{\thepage }}
\@writefile{lof}{\contentsline {figure}{\numberline {5}{\ignorespaces A possible design for a set of Turnector rotary faders (conductive material in red, non-conductive in grey) with contact points arranged using an 11 point polar array. }}{\thepage }}
\newlabel{fig:Knob-ContactPoints}{{5}{\thepage }}
\@writefile{toc}{\contentsline {section}{\numberline {5}Application Development}{\thepage }}
\newlabel{sec:applicationDevelopment}{{5}{\thepage }}
\@writefile{toc}{\contentsline {subsection}{\numberline {5.1}Tangible Detection Algorithm}{\thepage }}
\citation{jorda:reacTable}
\citation{ableton:Live}
\bibstyle{abbrv}
\bibdata{nime-references}
\bibcite{ableton:Live}{1}
\bibcite{barret:pro-CapTouchTech}{2}
\bibcite{dEscrivan:MusicTechnology}{3}
\bibcite{gelineck:SmartTangibleMixing}{4}
\bibcite{hexler:TouchOSC}{5}
\bibcite{ion:Scratch2Go}{6}
\bibcite{jorda:reacTable}{7}
\bibcite{Lindeman:Bimanual-PassiveHaptic-3DWidget}{8}
\bibcite{redlinger:mrmr}{9}
\bibcite{rogers:InteractionDesign}{10}
\bibcite{segundo:tabletMarket}{11}
\bibcite{voelker:PUCs}{12}
\bibcite{wang:Squeezy}{13}
\@writefile{lof}{\contentsline {figure}{\numberline {6}{\ignorespaces Detection algorithm illustration}}{\thepage }}
\newlabel{fig:DetectionAlgorithm}{{6}{\thepage }}
\@writefile{toc}{\contentsline {subsection}{\numberline {5.2}Control and Communication}{\thepage }}
\@writefile{toc}{\contentsline {subsection}{\numberline {5.3}Feedback and Graphical User Interface}{\thepage }}
\@writefile{toc}{\contentsline {section}{\numberline {6}Results}{\thepage }}
\newlabel{sec:results}{{6}{\thepage }}
\@writefile{toc}{\contentsline {section}{\numberline {7}Conclusion and Future Development}{\thepage }}
\newlabel{sec:conclusion}{{7}{\thepage }}
\@writefile{toc}{\contentsline {section}{\numberline {8}Acknowledgement}{\thepage }}
\@writefile{toc}{\contentsline {section}{\numberline {9}References}{\thepage }}
